\relax 
\catcode `"\active 
\catcode `<\active 
\catcode `>\active 
\@nameuse{es@quoting}
\abx@aux@sortscheme{apa}
\@writefile{toc}{\boolfalse {citerequest}\boolfalse {citetracker}\boolfalse {pagetracker}\boolfalse {backtracker}\relax }
\@writefile{lof}{\boolfalse {citerequest}\boolfalse {citetracker}\boolfalse {pagetracker}\boolfalse {backtracker}\relax }
\@writefile{lot}{\boolfalse {citerequest}\boolfalse {citetracker}\boolfalse {pagetracker}\boolfalse {backtracker}\relax }
\select@language{spanish}
\@writefile{toc}{\defcounter {refsection}{0}\relax }\@writefile{toc}{\select@language{spanish}}
\@writefile{lof}{\defcounter {refsection}{0}\relax }\@writefile{lof}{\select@language{spanish}}
\@writefile{lot}{\defcounter {refsection}{0}\relax }\@writefile{lot}{\select@language{spanish}}
\@writefile{toc}{\defcounter {refsection}{0}\relax }\@writefile{toc}{\contentsline {chapter}{\IeC {\'I}NDICE DE FIGURAS}{v}}
\@writefile{toc}{\defcounter {refsection}{0}\relax }\@writefile{toc}{\contentsline {chapter}{CAP\IeC {\'I}TULO 1. \hspace  {0.2cm} \uppercase {Introducci\IeC {\'o}n}}{6}}
\@writefile{toc}{\defcounter {refsection}{0}\relax }\@writefile{toc}{\contentsline {chapter}{CAP\IeC {\'I}TULO 2. \hspace  {0.2cm} \uppercase {Objetivos}}{7}}
\@writefile{toc}{\defcounter {refsection}{0}\relax }\@writefile{toc}{\contentsline {section}{2.1 \hspace  {0.5cm}\uppercase {Objetivo general}}{7}}
\@writefile{toc}{\defcounter {refsection}{0}\relax }\@writefile{toc}{\contentsline {section}{2.2 \hspace  {0.5cm}\uppercase {Objetivos espec\IeC {\'\i }ficos}}{7}}
\@writefile{toc}{\defcounter {refsection}{0}\relax }\@writefile{toc}{\contentsline {chapter}{CAP\IeC {\'I}TULO 3. \hspace  {0.2cm} \uppercase {Marco te\IeC {\'o}rico}}{8}}
\@writefile{toc}{\defcounter {refsection}{0}\relax }\@writefile{toc}{\contentsline {section}{3.1 \hspace  {0.5cm}\uppercase {Compraci\IeC {\'o}n en la ejecuci\IeC {\'o}n}}{8}}
\@writefile{lof}{\defcounter {refsection}{0}\relax }\@writefile{lof}{\contentsline {figure}{\numberline {3.1}{\ignorespaces  \textit  {Forma Escalar}}}{8}}
\@writefile{lof}{\defcounter {refsection}{0}\relax }\@writefile{lof}{\contentsline {figure}{\numberline {3.2}{\ignorespaces  \textit  {Forma Vectorial}}}{10}}
\@writefile{toc}{\defcounter {refsection}{0}\relax }\@writefile{toc}{\contentsline {section}{3.2 \hspace  {0.5cm}\uppercase {Ventajas de la programaci\IeC {\'o}n vectorial }}{10}}
\@writefile{toc}{\defcounter {refsection}{0}\relax }\@writefile{toc}{\contentsline {chapter}{CAP\IeC {\'I}TULO 4. \hspace  {0.2cm} \uppercase {Discusiones}}{12}}
\@writefile{toc}{\defcounter {refsection}{0}\relax }\@writefile{toc}{\contentsline {section}{4.1 \hspace  {0.5cm}\uppercase {Descripci\IeC {\'o}n de funciones}}{12}}
\@writefile{lof}{\defcounter {refsection}{0}\relax }\@writefile{lof}{\contentsline {figure}{\numberline {4.1}{\ignorespaces  \textit  {Primera funci\IeC {\'o}n a implementar}}}{12}}
\@writefile{lof}{\defcounter {refsection}{0}\relax }\@writefile{lof}{\contentsline {figure}{\numberline {4.2}{\ignorespaces  \textit  {Segunda funci\IeC {\'o}n a implementar}}}{12}}
\@writefile{toc}{\defcounter {refsection}{0}\relax }\@writefile{toc}{\contentsline {section}{4.2 \hspace  {0.5cm}\uppercase {Primera funci\IeC {\'o}n}}{13}}
\@writefile{toc}{\defcounter {refsection}{0}\relax }\@writefile{toc}{\contentsline {subsection}{4.2.1 \hspace  {0.2cm} Forma escalar}{13}}
\@writefile{lof}{\defcounter {refsection}{0}\relax }\@writefile{lof}{\contentsline {figure}{\numberline {4.3}{\ignorespaces  \textit  {Implementaci\IeC {\'o}n escalar.}}}{13}}
\@writefile{toc}{\defcounter {refsection}{0}\relax }\@writefile{toc}{\contentsline {subsection}{4.2.2 \hspace  {0.2cm} Forma vectorial}{13}}
\@writefile{toc}{\defcounter {refsection}{0}\relax }\@writefile{toc}{\contentsline {section}{4.3 \hspace  {0.5cm}\uppercase {Segunda funci\IeC {\'o}n}}{13}}
\@writefile{toc}{\defcounter {refsection}{0}\relax }\@writefile{toc}{\contentsline {subsection}{4.3.1 \hspace  {0.2cm} Forma escalar}{13}}
\@writefile{lof}{\defcounter {refsection}{0}\relax }\@writefile{lof}{\contentsline {figure}{\numberline {4.4}{\ignorespaces  \textit  {Implementaci\IeC {\'o}n escalar.}}}{14}}
\@writefile{toc}{\defcounter {refsection}{0}\relax }\@writefile{toc}{\contentsline {subsection}{4.3.2 \hspace  {0.2cm} Forma vectorial}{14}}
\@writefile{lof}{\defcounter {refsection}{0}\relax }\@writefile{lof}{\contentsline {figure}{\numberline {4.5}{\ignorespaces  \textit  {Implementaci\IeC {\'o}n escalar.}}}{15}}
\@writefile{toc}{\defcounter {refsection}{0}\relax }\@writefile{toc}{\contentsline {section}{4.4 \hspace  {0.5cm}\uppercase {Resultados}}{15}}
\@writefile{toc}{\defcounter {refsection}{0}\relax }\@writefile{toc}{\contentsline {subsection}{4.4.1 \hspace  {0.2cm} Funcion 1}{15}}
\@writefile{toc}{\defcounter {refsection}{0}\relax }\@writefile{toc}{\contentsline {subsection}{4.4.2 \hspace  {0.2cm} Funcion 2}{15}}
\@writefile{toc}{\defcounter {refsection}{0}\relax }\@writefile{toc}{\contentsline {section}{4.5 \hspace  {0.5cm}\uppercase {An\IeC {\'a}lisis comparativo}}{15}}
\@writefile{toc}{\defcounter {refsection}{0}\relax }\@writefile{toc}{\contentsline {chapter}{CAP\IeC {\'I}TULO 5. \hspace  {0.2cm} \uppercase {Conclusi\IeC {\'o}n}}{16}}
\@writefile{toc}{\defcounter {refsection}{0}\relax }\@writefile{toc}{\contentsline {chapter}{CAP\IeC {\'I}TULO 6. \hspace  {0.2cm} \uppercase {Referencias}}{17}}
